%YAML 1.1
%TAG !u! tag:unity3d.com,2011:
--- !u!74 &7400000
AnimationClip:
  m_ObjectHideFlags: 0
  m_CorrespondingSourceObject: {fileID: 0}
  m_PrefabInstance: {fileID: 0}
  m_PrefabAsset: {fileID: 0}
  m_Name: Walk_NW
  serializedVersion: 6
  m_Legacy: 0
  m_Compressed: 0
  m_UseHighQualityCurve: 1
  m_RotationCurves: []
  m_CompressedRotationCurves: []
  m_EulerCurves: []
  m_PositionCurves: []
  m_ScaleCurves: []
  m_FloatCurves: []
  m_PPtrCurves:
  - curve:
    - time: 0
      value: {fileID: 21300000, guid: 361f8226dae52c14f908ef3e8a900292, type: 3}
    - time: 0.1
      value: {fileID: 21300000, guid: 56388e88710d5bb46a92aafe796fef88, type: 3}
    - time: 0.2
      value: {fileID: 21300000, guid: f5890c7806aa1114e9b568d5c04730e5, type: 3}
    - time: 0.3
      value: {fileID: 21300000, guid: 0f12d2ea64fa4364cbfae27e472a177e, type: 3}
    - time: 0.4
      value: {fileID: 21300000, guid: 9f41ea6b5a0181e4da08c6ba60d76e2c, type: 3}
    - time: 0.5
      value: {fileID: 21300000, guid: ff1e4e0cdef16c94097cf560045ff3a6, type: 3}
    - time: 0.55
      value: {fileID: 21300000, guid: ff1e4e0cdef16c94097cf560045ff3a6, type: 3}
    attribute: m_Sprite
    path: mc idle S legs
    classID: 212
    script: {fileID: 0}
  m_SampleRate: 20
  m_WrapMode: 0
  m_Bounds:
    m_Center: {x: 0, y: 0, z: 0}
    m_Extent: {x: 0, y: 0, z: 0}
  m_ClipBindingConstant:
    genericBindings:
    - serializedVersion: 2
      path: 3362245458
      attribute: 0
      script: {fileID: 0}
      typeID: 212
      customType: 23
      isPPtrCurve: 1
    pptrCurveMapping:
    - {fileID: 21300000, guid: 361f8226dae52c14f908ef3e8a900292, type: 3}
    - {fileID: 21300000, guid: 56388e88710d5bb46a92aafe796fef88, type: 3}
    - {fileID: 21300000, guid: f5890c7806aa1114e9b568d5c04730e5, type: 3}
    - {fileID: 21300000, guid: 0f12d2ea64fa4364cbfae27e472a177e, type: 3}
    - {fileID: 21300000, guid: 9f41ea6b5a0181e4da08c6ba60d76e2c, type: 3}
    - {fileID: 21300000, guid: ff1e4e0cdef16c94097cf560045ff3a6, type: 3}
    - {fileID: 21300000, guid: ff1e4e0cdef16c94097cf560045ff3a6, type: 3}
  m_AnimationClipSettings:
    serializedVersion: 2
    m_AdditiveReferencePoseClip: {fileID: 0}
    m_AdditiveReferencePoseTime: 0
    m_StartTime: 0
    m_StopTime: 0.6
    m_OrientationOffsetY: 0
    m_Level: 0
    m_CycleOffset: 0
    m_HasAdditiveReferencePose: 0
    m_LoopTime: 1
    m_LoopBlend: 0
    m_LoopBlendOrientation: 0
    m_LoopBlendPositionY: 0
    m_LoopBlendPositionXZ: 0
    m_KeepOriginalOrientation: 0
    m_KeepOriginalPositionY: 1
    m_KeepOriginalPositionXZ: 0
    m_HeightFromFeet: 0
    m_Mirror: 0
  m_EditorCurves: []
  m_EulerEditorCurves: []
  m_HasGenericRootTransform: 0
  m_HasMotionFloatCurves: 0
  m_Events: []
