%YAML 1.1
%TAG !u! tag:unity3d.com,2011:
--- !u!114 &11400000
MonoBehaviour:
  m_ObjectHideFlags: 0
  m_CorrespondingSourceObject: {fileID: 0}
  m_PrefabInstance: {fileID: 0}
  m_PrefabAsset: {fileID: 0}
  m_GameObject: {fileID: 0}
  m_Enabled: 1
  m_EditorHideFlags: 0
  m_Script: {fileID: 11500000, guid: 55dd7621447b6594ca502b2edaef81af, type: 3}
  m_Name: MoveToPlayer
  m_EditorClassIdentifier: 
  behavior: 2
  minimumUtility: 0
  maximumUtility: 0.6
  factors: {fileID: 11400000, guid: 29ff4446c01e85346a2ae9cb3f7a8311, type: 2}
  randomUtilBonusMax: 0.3
  minimumPerformTime: 1
  relativeDestination: {x: 0, y: 0, z: 0}
  lastCalculatedUtility: 0.44506747
