%YAML 1.1
%TAG !u! tag:unity3d.com,2011:
--- !u!114 &11400000
MonoBehaviour:
  m_ObjectHideFlags: 0
  m_CorrespondingSourceObject: {fileID: 0}
  m_PrefabInstance: {fileID: 0}
  m_PrefabAsset: {fileID: 0}
  m_GameObject: {fileID: 0}
  m_Enabled: 1
  m_EditorHideFlags: 0
  m_Script: {fileID: 11500000, guid: 1004b655b679a004c8205c8d40ba9b80, type: 3}
  m_Name: Player Combos
  m_EditorClassIdentifier: 
  tree:
    children:
    - children:
      - children: []
        typePayload: 2
        inputType: 0
      typePayload: 2
      inputType: 0
    - children: []
      typePayload: 3
      inputType: 1
    - children: []
      typePayload: 4
      inputType: 2
    - children: []
      typePayload: 5
      inputType: 3
    - children:
      - children:
        - children: []
          typePayload: 4
          inputType: 0
        typePayload: -1
        inputType: -1
      typePayload: -1
      inputType: -1
    typePayload: -1
    inputType: 0
