%YAML 1.1
%TAG !u! tag:unity3d.com,2011:
--- !u!114 &11400000
MonoBehaviour:
  m_ObjectHideFlags: 0
  m_CorrespondingSourceObject: {fileID: 0}
  m_PrefabInstance: {fileID: 0}
  m_PrefabAsset: {fileID: 0}
  m_GameObject: {fileID: 0}
  m_Enabled: 1
  m_EditorHideFlags: 0
  m_Script: {fileID: 11500000, guid: c824dbe475ba4264f8f3d3eaf7563f12, type: 3}
  m_Name: Paint Color Definitions  Deutranopia
  m_EditorClassIdentifier: 
  _colors:
  - colorType: -1
    color: {r: 0, g: 0, b: 0, a: 0}
  - colorType: 0
    color: {r: 1, g: 0.17254902, b: 0.30980393, a: 1}
  - colorType: 1
    color: {r: 1, g: 0.87058824, b: 0.25882354, a: 1}
  - colorType: 2
    color: {r: 0.15686272, g: 0.83137256, b: 0.7973546, a: 1}
  - colorType: 3
    color: {r: 0.3440616, g: 0.12549019, b: 0.93333334, a: 1}
