%YAML 1.1
%TAG !u! tag:unity3d.com,2011:
--- !u!114 &11400000
MonoBehaviour:
  m_ObjectHideFlags: 0
  m_CorrespondingSourceObject: {fileID: 0}
  m_PrefabInstance: {fileID: 0}
  m_PrefabAsset: {fileID: 0}
  m_GameObject: {fileID: 0}
  m_Enabled: 1
  m_EditorHideFlags: 0
  m_Script: {fileID: 11500000, guid: f0e5a1e9225caad41a0a3027c4bc8043, type: 3}
  m_Name: DeadBaby
  m_EditorClassIdentifier: 
  _mixerGroup: {fileID: 0}
  _volume: 1
  _clip: {fileID: 8300000, guid: 45e8c4d584be5044f813ab930c69f588, type: 3}
  _pitch: 1
  _loop: 0
  _playOnAwake: 0
  _stackDelay: 0.1
  _usesRandomPitches: 1
  _randomPitchRange: {x: 0.9, y: 1.1}
